<?xml version="1.0" encoding="UTF-8" standalone="no"?>
<svg
   xmlns:dc="http://purl.org/dc/elements/1.1/"
   xmlns:cc="http://creativecommons.org/ns#"
   xmlns:rdf="http://www.w3.org/1999/02/22-rdf-syntax-ns#"
   xmlns:svg="http://www.w3.org/2000/svg"
   xmlns="http://www.w3.org/2000/svg"
   xmlns:sodipodi="http://sodipodi.sourceforge.net/DTD/sodipodi-0.dtd"
   xmlns:inkscape="http://www.inkscape.org/namespaces/inkscape"
   version="1"
   viewBox="0 0 30 30"
   enable-background="new 0 0 48 48"
   id="svg2"
   inkscape:version="0.91 r13725"
   sodipodi:docname="add_image.svg"
   width="30"
   height="30">
  <metadata
     id="metadata24">
    <rdf:RDF>
      <cc:Work
         rdf:about="">
        <dc:format>image/svg+xml</dc:format>
        <dc:type
           rdf:resource="http://purl.org/dc/dcmitype/StillImage" />
        <dc:title></dc:title>
      </cc:Work>
    </rdf:RDF>
  </metadata>
  <defs
     id="defs22" />
  <sodipodi:namedview
     pagecolor="#ffffff"
     bordercolor="#666666"
     borderopacity="1"
     objecttolerance="10"
     gridtolerance="10"
     guidetolerance="10"
     inkscape:pageopacity="0"
     inkscape:pageshadow="2"
     inkscape:window-width="640"
     inkscape:window-height="480"
     id="namedview20"
     showgrid="false"
     inkscape:zoom="4.9166667"
     inkscape:cx="24"
     inkscape:cy="24"
     inkscape:window-x="0"
     inkscape:window-y="24"
     inkscape:window-maximized="0"
     inkscape:current-layer="svg2" />
  <path
     d="m 23.895223,23.781202 -19.1309703,0 c -1.3152542,0 -2.3913713,-1.076117 -2.3913713,-2.391371 l 0,-15.5439142 c 0,-1.3152542 1.0761171,-2.3913713 2.3913713,-2.3913713 l 19.1309703,0 c 1.315254,0 2.391371,1.0761171 2.391371,2.3913713 l 0,15.5439142 c 0,1.315254 -1.076117,2.391371 -2.391371,2.391371 z"
     id="path4"
     inkscape:connector-curvature="0"
     style="fill:#8cbcd6" />
  <circle
     cx="20.90601"
     cy="8.8351307"
     r="1.7935286"
     id="circle6"
     style="fill:#b3ddf5" />
  <polygon
     points="31,32 20,16 9,32 "
     id="polygon8"
     style="fill:#9ac9e3"
     transform="matrix(0.59784284,0,0,0.59784284,-0.01848994,-0.73035441)" />
  <polygon
     points="39,32 31,22 23,32 "
     id="polygon10"
     style="fill:#b3ddf5"
     transform="matrix(0.59784284,0,0,0.59784284,-0.01848994,-0.73035441)" />
  <circle
     cx="22.699537"
     cy="21.987675"
     r="5.9784284"
     id="circle12"
     style="fill:#43a047" />
  <g
     id="g14"
     style="fill:#ffffff"
     transform="matrix(0.59784284,0,0,0.59784284,-0.01848994,-0.73035441)">
    <rect
       x="36"
       y="32"
       width="4"
       height="12"
       id="rect16" />
    <rect
       x="32"
       y="36"
       width="12"
       height="4"
       id="rect18" />
  </g>
</svg>
