<?xml version="1.0" encoding="UTF-8" standalone="no"?>
<svg
   xmlns:dc="http://purl.org/dc/elements/1.1/"
   xmlns:cc="http://creativecommons.org/ns#"
   xmlns:rdf="http://www.w3.org/1999/02/22-rdf-syntax-ns#"
   xmlns:svg="http://www.w3.org/2000/svg"
   xmlns="http://www.w3.org/2000/svg"
   xmlns:sodipodi="http://sodipodi.sourceforge.net/DTD/sodipodi-0.dtd"
   xmlns:inkscape="http://www.inkscape.org/namespaces/inkscape"
   version="1"
   viewBox="0 0 30 30"
   enable-background="new 0 0 48 48"
   id="svg2"
   inkscape:version="0.91 r13725"
   sodipodi:docname="camera.svg"
   width="30"
   height="30">
  <metadata
     id="metadata22">
    <rdf:RDF>
      <cc:Work
         rdf:about="">
        <dc:format>image/svg+xml</dc:format>
        <dc:type
           rdf:resource="http://purl.org/dc/dcmitype/StillImage" />
        <dc:title></dc:title>
      </cc:Work>
    </rdf:RDF>
  </metadata>
  <defs
     id="defs20" />
  <sodipodi:namedview
     pagecolor="#ffffff"
     bordercolor="#666666"
     borderopacity="1"
     objecttolerance="10"
     gridtolerance="10"
     guidetolerance="10"
     inkscape:pageopacity="0"
     inkscape:pageshadow="2"
     inkscape:window-width="640"
     inkscape:window-height="480"
     id="namedview18"
     showgrid="false"
     inkscape:zoom="4.9166667"
     inkscape:cx="24"
     inkscape:cy="21.830807"
     inkscape:window-x="0"
     inkscape:window-y="24"
     inkscape:window-maximized="0"
     inkscape:current-layer="svg2" />
  <path
     d="m 20.51829,8.2613707 -10.101586,0 1.74342,-2.6151312 c 0.205109,-0.3076627 0.512771,-0.461494 0.87171,-0.461494 l 4.922601,0 c 0.358939,0 0.666602,0.1538313 0.871711,0.461494 l 1.692144,2.6151312 z"
     id="path4"
     inkscape:connector-curvature="0"
     style="fill:#512da8" />
  <path
     d="m 10.314149,7.6973228 -3.0766247,0 0,-0.9229873 c 0,-0.3589393 0.2563853,-0.6153254 0.615325,-0.6153254 l 1.8459749,0 c 0.3589398,0 0.6153248,0.2563861 0.6153248,0.6153254 l 0,0.9229873 z"
     id="path6"
     inkscape:connector-curvature="0"
     style="fill:#8667c4" />
  <path
     d="m 23.646191,23.593221 -16.4086667,0 c -1.128096,0 -2.0510836,-0.922987 -2.0510836,-2.051083 l 0,-12.3065023 c 0,-1.1280963 0.9229876,-2.0510835 2.0510836,-2.0510835 l 16.4086667,0 c 1.128096,0 2.051085,0.9229872 2.051085,2.0510835 l 0,12.3065023 c 0,1.128096 -0.922989,2.051083 -2.051085,2.051083 z"
     id="path8"
     inkscape:connector-curvature="0"
     style="fill:#5e35b1" />
  <circle
     cx="15.441858"
     cy="15.388886"
     r="6.1532507"
     id="circle10"
     style="fill:#512da8" />
  <circle
     cx="15.441858"
     cy="15.388886"
     r="4.6149383"
     id="circle12"
     style="fill:#b388ff" />
  <path
     d="m 18.005712,13.850575 c -0.615325,-0.71788 -1.538312,-1.128096 -2.4613,-1.128096 -0.922988,0 -1.845976,0.410216 -2.4613,1.128096 -0.256386,0.256385 -0.205109,0.666602 0.05128,0.922987 0.256385,0.256385 0.666603,0.205108 0.922988,-0.05128 0.769156,-0.87171 2.204914,-0.87171 2.974071,0 0.153831,0.153831 0.307662,0.205109 0.512771,0.205109 0.153831,0 0.307662,-0.05128 0.461494,-0.153832 0.205108,-0.205108 0.256385,-0.666602 0,-0.922987 z"
     id="path14"
     inkscape:connector-curvature="0"
     style="fill:#c7a7ff" />
  <ellipse
     cx="8.7758369"
     cy="8.97925"
     rx="1.0255418"
     ry="0.76915634"
     id="ellipse16"
     style="fill:#8667c4" />
</svg>
