<?xml version="1.0" encoding="UTF-8" standalone="no"?>
<svg
   xmlns:dc="http://purl.org/dc/elements/1.1/"
   xmlns:cc="http://creativecommons.org/ns#"
   xmlns:rdf="http://www.w3.org/1999/02/22-rdf-syntax-ns#"
   xmlns:svg="http://www.w3.org/2000/svg"
   xmlns="http://www.w3.org/2000/svg"
   xmlns:sodipodi="http://sodipodi.sourceforge.net/DTD/sodipodi-0.dtd"
   xmlns:inkscape="http://www.inkscape.org/namespaces/inkscape"
   version="1"
   viewBox="0 0 30 30"
   enable-background="new 0 0 48 48"
   id="svg2"
   inkscape:version="0.91 r13725"
   sodipodi:docname="serial_tasks.svg"
   width="30"
   height="30">
  <metadata
     id="metadata22">
    <rdf:RDF>
      <cc:Work
         rdf:about="">
        <dc:format>image/svg+xml</dc:format>
        <dc:type
           rdf:resource="http://purl.org/dc/dcmitype/StillImage" />
        <dc:title />
      </cc:Work>
    </rdf:RDF>
  </metadata>
  <defs
     id="defs20" />
  <sodipodi:namedview
     pagecolor="#ffffff"
     bordercolor="#666666"
     borderopacity="1"
     objecttolerance="10"
     gridtolerance="10"
     guidetolerance="10"
     inkscape:pageopacity="0"
     inkscape:pageshadow="2"
     inkscape:window-width="640"
     inkscape:window-height="480"
     id="namedview18"
     showgrid="false"
     inkscape:zoom="4.9166667"
     inkscape:cx="24"
     inkscape:cy="24"
     inkscape:window-x="0"
     inkscape:window-y="24"
     inkscape:window-maximized="0"
     inkscape:current-layer="g8" />
  <path
     d="m 20.491525,6.0847458 -13.2994346,0 0,2.4180791 13.2994346,0 c 0.664971,0 1.209039,0.5440678 1.209039,1.2090396 l 0,12.0903955 -7.254236,0 0,2.41808 9.672316,0 0,-14.5084755 c 0,-1.9949153 -1.632204,-3.6271187 -3.627119,-3.6271187 z"
     id="path4"
     inkscape:connector-curvature="0"
     style="fill:#90caf9" />
  <rect
     x="4.1694913"
     y="4.2711864"
     width="6.0451975"
     height="6.0451975"
     id="rect6"
     style="fill:#d81b60" />
  <g
     id="g8"
     style="fill:#2196f3"
     transform="matrix(0.60451978,0,0,0.60451978,0.54237256,0.64406781)">
    <rect
       x="32"
       y="17"
       width="10"
       height="10"
       id="rect10" />
    <rect
       x="16"
       y="32"
       width="10"
       height="10"
       id="rect12"
       style="fill:#ffff00" />
  </g>
</svg>
